%YAML 1.1
%TAG !u! tag:unity3d.com,2011:
--- !u!1001 &3659061426760796449
PrefabInstance:
  m_ObjectHideFlags: 0
  serializedVersion: 2
  m_Modification:
    m_TransformParent: {fileID: 0}
    m_Modifications:
    - target: {fileID: 419020963800298771, guid: a2d80bb68ef89b9499e8fe837beedbd0, type: 3}
      propertyPath: m_AnchorMax.y
      value: 0
      objectReference: {fileID: 0}
    - target: {fileID: 419020963800298771, guid: a2d80bb68ef89b9499e8fe837beedbd0, type: 3}
      propertyPath: m_AnchorMin.y
      value: 0
      objectReference: {fileID: 0}
    - target: {fileID: 419020963800298771, guid: a2d80bb68ef89b9499e8fe837beedbd0, type: 3}
      propertyPath: m_SizeDelta.x
      value: 0
      objectReference: {fileID: 0}
    - target: {fileID: 419020963800298771, guid: a2d80bb68ef89b9499e8fe837beedbd0, type: 3}
      propertyPath: m_SizeDelta.y
      value: 0
      objectReference: {fileID: 0}
    - target: {fileID: 419020963800298771, guid: a2d80bb68ef89b9499e8fe837beedbd0, type: 3}
      propertyPath: m_AnchoredPosition.x
      value: 0
      objectReference: {fileID: 0}
    - target: {fileID: 419020963800298771, guid: a2d80bb68ef89b9499e8fe837beedbd0, type: 3}
      propertyPath: m_AnchoredPosition.y
      value: 0
      objectReference: {fileID: 0}
    - target: {fileID: 988855415385215810, guid: a2d80bb68ef89b9499e8fe837beedbd0, type: 3}
      propertyPath: m_AnchorMax.y
      value: 0
      objectReference: {fileID: 0}
    - target: {fileID: 988855415385215810, guid: a2d80bb68ef89b9499e8fe837beedbd0, type: 3}
      propertyPath: m_AnchorMin.y
      value: 0
      objectReference: {fileID: 0}
    - target: {fileID: 988855415385215810, guid: a2d80bb68ef89b9499e8fe837beedbd0, type: 3}
      propertyPath: m_SizeDelta.x
      value: 0
      objectReference: {fileID: 0}
    - target: {fileID: 988855415385215810, guid: a2d80bb68ef89b9499e8fe837beedbd0, type: 3}
      propertyPath: m_SizeDelta.y
      value: 0
      objectReference: {fileID: 0}
    - target: {fileID: 988855415385215810, guid: a2d80bb68ef89b9499e8fe837beedbd0, type: 3}
      propertyPath: m_AnchoredPosition.x
      value: 0
      objectReference: {fileID: 0}
    - target: {fileID: 988855415385215810, guid: a2d80bb68ef89b9499e8fe837beedbd0, type: 3}
      propertyPath: m_AnchoredPosition.y
      value: 0
      objectReference: {fileID: 0}
    - target: {fileID: 995368482529172401, guid: a2d80bb68ef89b9499e8fe837beedbd0, type: 3}
      propertyPath: m_AnchorMax.y
      value: 0
      objectReference: {fileID: 0}
    - target: {fileID: 995368482529172401, guid: a2d80bb68ef89b9499e8fe837beedbd0, type: 3}
      propertyPath: m_AnchorMin.y
      value: 0
      objectReference: {fileID: 0}
    - target: {fileID: 995368482529172401, guid: a2d80bb68ef89b9499e8fe837beedbd0, type: 3}
      propertyPath: m_SizeDelta.x
      value: 0
      objectReference: {fileID: 0}
    - target: {fileID: 995368482529172401, guid: a2d80bb68ef89b9499e8fe837beedbd0, type: 3}
      propertyPath: m_SizeDelta.y
      value: 0
      objectReference: {fileID: 0}
    - target: {fileID: 995368482529172401, guid: a2d80bb68ef89b9499e8fe837beedbd0, type: 3}
      propertyPath: m_AnchoredPosition.x
      value: 0
      objectReference: {fileID: 0}
    - target: {fileID: 995368482529172401, guid: a2d80bb68ef89b9499e8fe837beedbd0, type: 3}
      propertyPath: m_AnchoredPosition.y
      value: 0
      objectReference: {fileID: 0}
    - target: {fileID: 1297395823550135004, guid: a2d80bb68ef89b9499e8fe837beedbd0, type: 3}
      propertyPath: m_IsActive
      value: 1
      objectReference: {fileID: 0}
    - target: {fileID: 2353176807812056717, guid: a2d80bb68ef89b9499e8fe837beedbd0, type: 3}
      propertyPath: m_AnchorMax.y
      value: 0
      objectReference: {fileID: 0}
    - target: {fileID: 2353176807812056717, guid: a2d80bb68ef89b9499e8fe837beedbd0, type: 3}
      propertyPath: m_AnchorMin.y
      value: 0
      objectReference: {fileID: 0}
    - target: {fileID: 2353176807812056717, guid: a2d80bb68ef89b9499e8fe837beedbd0, type: 3}
      propertyPath: m_SizeDelta.x
      value: 0
      objectReference: {fileID: 0}
    - target: {fileID: 2353176807812056717, guid: a2d80bb68ef89b9499e8fe837beedbd0, type: 3}
      propertyPath: m_SizeDelta.y
      value: 0
      objectReference: {fileID: 0}
    - target: {fileID: 2353176807812056717, guid: a2d80bb68ef89b9499e8fe837beedbd0, type: 3}
      propertyPath: m_AnchoredPosition.x
      value: 0
      objectReference: {fileID: 0}
    - target: {fileID: 2353176807812056717, guid: a2d80bb68ef89b9499e8fe837beedbd0, type: 3}
      propertyPath: m_AnchoredPosition.y
      value: 0
      objectReference: {fileID: 0}
    - target: {fileID: 2858300715723409752, guid: a2d80bb68ef89b9499e8fe837beedbd0, type: 3}
      propertyPath: m_CellSize.x
      value: 100
      objectReference: {fileID: 0}
    - target: {fileID: 2858300715723409752, guid: a2d80bb68ef89b9499e8fe837beedbd0, type: 3}
      propertyPath: m_CellSize.y
      value: 30
      objectReference: {fileID: 0}
    - target: {fileID: 2858300715723409752, guid: a2d80bb68ef89b9499e8fe837beedbd0, type: 3}
      propertyPath: m_Padding.m_Left
      value: 0
      objectReference: {fileID: 0}
    - target: {fileID: 2917045928140447635, guid: a2d80bb68ef89b9499e8fe837beedbd0, type: 3}
      propertyPath: m_OnClick.m_PersistentCalls.m_Calls.Array.data[0].m_Target
      value: 
      objectReference: {fileID: 0}
    - target: {fileID: 2917045928140447635, guid: a2d80bb68ef89b9499e8fe837beedbd0, type: 3}
      propertyPath: m_OnClick.m_PersistentCalls.m_Calls.Array.data[0].m_MethodName
      value: VerCambioDatos
      objectReference: {fileID: 0}
    - target: {fileID: 3039587214184354710, guid: a2d80bb68ef89b9499e8fe837beedbd0, type: 3}
      propertyPath: m_OnClick.m_PersistentCalls.m_Calls.Array.data[0].m_Target
      value: 
      objectReference: {fileID: 0}
    - target: {fileID: 3039587214184354710, guid: a2d80bb68ef89b9499e8fe837beedbd0, type: 3}
      propertyPath: m_OnClick.m_PersistentCalls.m_Calls.Array.data[0].m_MethodName
      value: VerInfo
      objectReference: {fileID: 0}
    - target: {fileID: 3041853470790674474, guid: a2d80bb68ef89b9499e8fe837beedbd0, type: 3}
      propertyPath: m_OnClick.m_PersistentCalls.m_Calls.Array.data[0].m_Target
      value: 
      objectReference: {fileID: 0}
    - target: {fileID: 3863927476970654125, guid: a2d80bb68ef89b9499e8fe837beedbd0, type: 3}
      propertyPath: m_AnchorMax.y
      value: 0
      objectReference: {fileID: 0}
    - target: {fileID: 3863927476970654125, guid: a2d80bb68ef89b9499e8fe837beedbd0, type: 3}
      propertyPath: m_AnchorMin.y
      value: 0
      objectReference: {fileID: 0}
    - target: {fileID: 3863927476970654125, guid: a2d80bb68ef89b9499e8fe837beedbd0, type: 3}
      propertyPath: m_SizeDelta.x
      value: 0
      objectReference: {fileID: 0}
    - target: {fileID: 3863927476970654125, guid: a2d80bb68ef89b9499e8fe837beedbd0, type: 3}
      propertyPath: m_SizeDelta.y
      value: 0
      objectReference: {fileID: 0}
    - target: {fileID: 3863927476970654125, guid: a2d80bb68ef89b9499e8fe837beedbd0, type: 3}
      propertyPath: m_AnchoredPosition.x
      value: 0
      objectReference: {fileID: 0}
    - target: {fileID: 3863927476970654125, guid: a2d80bb68ef89b9499e8fe837beedbd0, type: 3}
      propertyPath: m_AnchoredPosition.y
      value: 0
      objectReference: {fileID: 0}
    - target: {fileID: 4042573988435953131, guid: a2d80bb68ef89b9499e8fe837beedbd0, type: 3}
      propertyPath: m_IsActive
      value: 1
      objectReference: {fileID: 0}
    - target: {fileID: 4278048685663114971, guid: a2d80bb68ef89b9499e8fe837beedbd0, type: 3}
      propertyPath: m_AnchorMax.y
      value: 0
      objectReference: {fileID: 0}
    - target: {fileID: 4278048685663114971, guid: a2d80bb68ef89b9499e8fe837beedbd0, type: 3}
      propertyPath: m_AnchorMin.y
      value: 0
      objectReference: {fileID: 0}
    - target: {fileID: 4278048685663114971, guid: a2d80bb68ef89b9499e8fe837beedbd0, type: 3}
      propertyPath: m_SizeDelta.x
      value: 0
      objectReference: {fileID: 0}
    - target: {fileID: 4278048685663114971, guid: a2d80bb68ef89b9499e8fe837beedbd0, type: 3}
      propertyPath: m_SizeDelta.y
      value: 0
      objectReference: {fileID: 0}
    - target: {fileID: 4278048685663114971, guid: a2d80bb68ef89b9499e8fe837beedbd0, type: 3}
      propertyPath: m_AnchoredPosition.x
      value: 0
      objectReference: {fileID: 0}
    - target: {fileID: 4278048685663114971, guid: a2d80bb68ef89b9499e8fe837beedbd0, type: 3}
      propertyPath: m_AnchoredPosition.y
      value: 0
      objectReference: {fileID: 0}
    - target: {fileID: 4478432457139041749, guid: a2d80bb68ef89b9499e8fe837beedbd0, type: 3}
      propertyPath: m_OnClick.m_PersistentCalls.m_Calls.Array.data[0].m_Target
      value: 
      objectReference: {fileID: 0}
    - target: {fileID: 4478432457139041749, guid: a2d80bb68ef89b9499e8fe837beedbd0, type: 3}
      propertyPath: m_OnClick.m_PersistentCalls.m_Calls.Array.data[0].m_MethodName
      value: VerCostosProduccion
      objectReference: {fileID: 0}
    - target: {fileID: 4598401606670715647, guid: a2d80bb68ef89b9499e8fe837beedbd0, type: 3}
      propertyPath: m_OnClick.m_PersistentCalls.m_Calls.Array.data[0].m_Target
      value: 
      objectReference: {fileID: 0}
    - target: {fileID: 5134140239429090814, guid: a2d80bb68ef89b9499e8fe837beedbd0, type: 3}
      propertyPath: m_IsActive
      value: 0
      objectReference: {fileID: 0}
    - target: {fileID: 5135424848820181736, guid: a2d80bb68ef89b9499e8fe837beedbd0, type: 3}
      propertyPath: m_IsActive
      value: 0
      objectReference: {fileID: 0}
    - target: {fileID: 5135475284544743790, guid: a2d80bb68ef89b9499e8fe837beedbd0, type: 3}
      propertyPath: m_IsActive
      value: 0
      objectReference: {fileID: 0}
    - target: {fileID: 5693197903370067968, guid: a2d80bb68ef89b9499e8fe837beedbd0, type: 3}
      propertyPath: m_AnchorMax.y
      value: 0
      objectReference: {fileID: 0}
    - target: {fileID: 5693197903370067968, guid: a2d80bb68ef89b9499e8fe837beedbd0, type: 3}
      propertyPath: m_AnchorMin.y
      value: 0
      objectReference: {fileID: 0}
    - target: {fileID: 5693197903370067968, guid: a2d80bb68ef89b9499e8fe837beedbd0, type: 3}
      propertyPath: m_SizeDelta.x
      value: 0
      objectReference: {fileID: 0}
    - target: {fileID: 5693197903370067968, guid: a2d80bb68ef89b9499e8fe837beedbd0, type: 3}
      propertyPath: m_SizeDelta.y
      value: 0
      objectReference: {fileID: 0}
    - target: {fileID: 5693197903370067968, guid: a2d80bb68ef89b9499e8fe837beedbd0, type: 3}
      propertyPath: m_AnchoredPosition.x
      value: 0
      objectReference: {fileID: 0}
    - target: {fileID: 5693197903370067968, guid: a2d80bb68ef89b9499e8fe837beedbd0, type: 3}
      propertyPath: m_AnchoredPosition.y
      value: 0
      objectReference: {fileID: 0}
    - target: {fileID: 5805589231552913858, guid: a2d80bb68ef89b9499e8fe837beedbd0, type: 3}
      propertyPath: m_Text
      value: "Raci\xF3n lote:"
      objectReference: {fileID: 0}
    - target: {fileID: 5805589231552913871, guid: a2d80bb68ef89b9499e8fe837beedbd0, type: 3}
      propertyPath: m_Name
      value: PElblRacionLote(Label)
      objectReference: {fileID: 0}
    - target: {fileID: 5805589232320279000, guid: a2d80bb68ef89b9499e8fe837beedbd0, type: 3}
      propertyPath: m_Name
      value: PERacionLote(Text)(Text)
      objectReference: {fileID: 0}
    - target: {fileID: 5805589232829938247, guid: a2d80bb68ef89b9499e8fe837beedbd0, type: 3}
      propertyPath: m_OnValueChanged.m_PersistentCalls.m_Calls.Array.data[0].m_Target
      value: 
      objectReference: {fileID: 0}
    - target: {fileID: 5805589232829938247, guid: a2d80bb68ef89b9499e8fe837beedbd0, type: 3}
      propertyPath: m_OnValueChanged.m_PersistentCalls.m_Calls.Array.data[0].m_MethodName
      value: CalcularValorSuministroRacion
      objectReference: {fileID: 0}
    - target: {fileID: 5805589232829938247, guid: a2d80bb68ef89b9499e8fe837beedbd0, type: 3}
      propertyPath: m_OnValueChanged.m_PersistentCalls.m_Calls.Array.data[0].m_TargetAssemblyTypeName
      value: GameLogicN5, Assembly-CSharp
      objectReference: {fileID: 0}
    - target: {fileID: 5805589233214043494, guid: a2d80bb68ef89b9499e8fe837beedbd0, type: 3}
      propertyPath: m_OnClick.m_PersistentCalls.m_Calls.Array.data[0].m_Target
      value: 
      objectReference: {fileID: 0}
    - target: {fileID: 5805589233214043494, guid: a2d80bb68ef89b9499e8fe837beedbd0, type: 3}
      propertyPath: m_OnClick.m_PersistentCalls.m_Calls.Array.data[0].m_MethodName
      value: CambiarRacion
      objectReference: {fileID: 0}
    - target: {fileID: 5805589233214043494, guid: a2d80bb68ef89b9499e8fe837beedbd0, type: 3}
      propertyPath: m_OnClick.m_PersistentCalls.m_Calls.Array.data[0].m_TargetAssemblyTypeName
      value: GameLogicN5, Assembly-CSharp
      objectReference: {fileID: 0}
    - target: {fileID: 6269077238613607626, guid: a2d80bb68ef89b9499e8fe837beedbd0, type: 3}
      propertyPath: m_IsActive
      value: 0
      objectReference: {fileID: 0}
    - target: {fileID: 6269077238613607627, guid: a2d80bb68ef89b9499e8fe837beedbd0, type: 3}
      propertyPath: m_AnchorMax.x
      value: 0
      objectReference: {fileID: 0}
    - target: {fileID: 6269077238613607627, guid: a2d80bb68ef89b9499e8fe837beedbd0, type: 3}
      propertyPath: m_AnchorMax.y
      value: 0
      objectReference: {fileID: 0}
    - target: {fileID: 6269077238613607627, guid: a2d80bb68ef89b9499e8fe837beedbd0, type: 3}
      propertyPath: m_AnchorMin.x
      value: 0
      objectReference: {fileID: 0}
    - target: {fileID: 6269077238613607627, guid: a2d80bb68ef89b9499e8fe837beedbd0, type: 3}
      propertyPath: m_AnchorMin.y
      value: 0
      objectReference: {fileID: 0}
    - target: {fileID: 6269077238613607627, guid: a2d80bb68ef89b9499e8fe837beedbd0, type: 3}
      propertyPath: m_SizeDelta.x
      value: 132
      objectReference: {fileID: 0}
    - target: {fileID: 6269077238613607627, guid: a2d80bb68ef89b9499e8fe837beedbd0, type: 3}
      propertyPath: m_SizeDelta.y
      value: 0
      objectReference: {fileID: 0}
    - target: {fileID: 6269077238613607627, guid: a2d80bb68ef89b9499e8fe837beedbd0, type: 3}
      propertyPath: m_AnchoredPosition.x
      value: 330
      objectReference: {fileID: 0}
    - target: {fileID: 6269077238613607627, guid: a2d80bb68ef89b9499e8fe837beedbd0, type: 3}
      propertyPath: m_AnchoredPosition.y
      value: 0
      objectReference: {fileID: 0}
    - target: {fileID: 6269077239276924563, guid: a2d80bb68ef89b9499e8fe837beedbd0, type: 3}
      propertyPath: m_Name
      value: Estanque(Canvas)
      objectReference: {fileID: 0}
    - target: {fileID: 6269077239276924567, guid: a2d80bb68ef89b9499e8fe837beedbd0, type: 3}
      propertyPath: m_Pivot.x
      value: 0
      objectReference: {fileID: 0}
    - target: {fileID: 6269077239276924567, guid: a2d80bb68ef89b9499e8fe837beedbd0, type: 3}
      propertyPath: m_Pivot.y
      value: 0
      objectReference: {fileID: 0}
    - target: {fileID: 6269077239276924567, guid: a2d80bb68ef89b9499e8fe837beedbd0, type: 3}
      propertyPath: m_RootOrder
      value: 0
      objectReference: {fileID: 0}
    - target: {fileID: 6269077239276924567, guid: a2d80bb68ef89b9499e8fe837beedbd0, type: 3}
      propertyPath: m_AnchorMax.x
      value: 0
      objectReference: {fileID: 0}
    - target: {fileID: 6269077239276924567, guid: a2d80bb68ef89b9499e8fe837beedbd0, type: 3}
      propertyPath: m_AnchorMax.y
      value: 0
      objectReference: {fileID: 0}
    - target: {fileID: 6269077239276924567, guid: a2d80bb68ef89b9499e8fe837beedbd0, type: 3}
      propertyPath: m_AnchorMin.x
      value: 0
      objectReference: {fileID: 0}
    - target: {fileID: 6269077239276924567, guid: a2d80bb68ef89b9499e8fe837beedbd0, type: 3}
      propertyPath: m_AnchorMin.y
      value: 0
      objectReference: {fileID: 0}
    - target: {fileID: 6269077239276924567, guid: a2d80bb68ef89b9499e8fe837beedbd0, type: 3}
      propertyPath: m_SizeDelta.x
      value: 0
      objectReference: {fileID: 0}
    - target: {fileID: 6269077239276924567, guid: a2d80bb68ef89b9499e8fe837beedbd0, type: 3}
      propertyPath: m_SizeDelta.y
      value: 0
      objectReference: {fileID: 0}
    - target: {fileID: 6269077239276924567, guid: a2d80bb68ef89b9499e8fe837beedbd0, type: 3}
      propertyPath: m_LocalPosition.x
      value: 0
      objectReference: {fileID: 0}
    - target: {fileID: 6269077239276924567, guid: a2d80bb68ef89b9499e8fe837beedbd0, type: 3}
      propertyPath: m_LocalPosition.y
      value: 0
      objectReference: {fileID: 0}
    - target: {fileID: 6269077239276924567, guid: a2d80bb68ef89b9499e8fe837beedbd0, type: 3}
      propertyPath: m_LocalPosition.z
      value: 0
      objectReference: {fileID: 0}
    - target: {fileID: 6269077239276924567, guid: a2d80bb68ef89b9499e8fe837beedbd0, type: 3}
      propertyPath: m_LocalRotation.w
      value: 1
      objectReference: {fileID: 0}
    - target: {fileID: 6269077239276924567, guid: a2d80bb68ef89b9499e8fe837beedbd0, type: 3}
      propertyPath: m_LocalRotation.x
      value: 0
      objectReference: {fileID: 0}
    - target: {fileID: 6269077239276924567, guid: a2d80bb68ef89b9499e8fe837beedbd0, type: 3}
      propertyPath: m_LocalRotation.y
      value: 0
      objectReference: {fileID: 0}
    - target: {fileID: 6269077239276924567, guid: a2d80bb68ef89b9499e8fe837beedbd0, type: 3}
      propertyPath: m_LocalRotation.z
      value: 0
      objectReference: {fileID: 0}
    - target: {fileID: 6269077239276924567, guid: a2d80bb68ef89b9499e8fe837beedbd0, type: 3}
      propertyPath: m_AnchoredPosition.x
      value: 0
      objectReference: {fileID: 0}
    - target: {fileID: 6269077239276924567, guid: a2d80bb68ef89b9499e8fe837beedbd0, type: 3}
      propertyPath: m_AnchoredPosition.y
      value: 0
      objectReference: {fileID: 0}
    - target: {fileID: 6269077239276924567, guid: a2d80bb68ef89b9499e8fe837beedbd0, type: 3}
      propertyPath: m_LocalEulerAnglesHint.x
      value: 0
      objectReference: {fileID: 0}
    - target: {fileID: 6269077239276924567, guid: a2d80bb68ef89b9499e8fe837beedbd0, type: 3}
      propertyPath: m_LocalEulerAnglesHint.y
      value: 0
      objectReference: {fileID: 0}
    - target: {fileID: 6269077239276924567, guid: a2d80bb68ef89b9499e8fe837beedbd0, type: 3}
      propertyPath: m_LocalEulerAnglesHint.z
      value: 0
      objectReference: {fileID: 0}
    - target: {fileID: 6269077239782646284, guid: a2d80bb68ef89b9499e8fe837beedbd0, type: 3}
      propertyPath: m_TargetGraphic
      value: 
      objectReference: {fileID: 0}
    - target: {fileID: 6269077239782646284, guid: a2d80bb68ef89b9499e8fe837beedbd0, type: 3}
      propertyPath: m_OnClick.m_PersistentCalls.m_Calls.Array.data[0].m_Target
      value: 
      objectReference: {fileID: 0}
    - target: {fileID: 6269077239782646287, guid: a2d80bb68ef89b9499e8fe837beedbd0, type: 3}
      propertyPath: m_AnchorMax.x
      value: 0
      objectReference: {fileID: 0}
    - target: {fileID: 6269077239782646287, guid: a2d80bb68ef89b9499e8fe837beedbd0, type: 3}
      propertyPath: m_AnchorMax.y
      value: 0
      objectReference: {fileID: 0}
    - target: {fileID: 6269077239782646287, guid: a2d80bb68ef89b9499e8fe837beedbd0, type: 3}
      propertyPath: m_AnchorMin.x
      value: 0
      objectReference: {fileID: 0}
    - target: {fileID: 6269077239782646287, guid: a2d80bb68ef89b9499e8fe837beedbd0, type: 3}
      propertyPath: m_AnchorMin.y
      value: 0
      objectReference: {fileID: 0}
    - target: {fileID: 6269077239782646287, guid: a2d80bb68ef89b9499e8fe837beedbd0, type: 3}
      propertyPath: m_SizeDelta.x
      value: 0
      objectReference: {fileID: 0}
    - target: {fileID: 6269077239782646287, guid: a2d80bb68ef89b9499e8fe837beedbd0, type: 3}
      propertyPath: m_SizeDelta.y
      value: 0
      objectReference: {fileID: 0}
    - target: {fileID: 6269077239782646287, guid: a2d80bb68ef89b9499e8fe837beedbd0, type: 3}
      propertyPath: m_AnchoredPosition.x
      value: 0
      objectReference: {fileID: 0}
    - target: {fileID: 6269077239782646287, guid: a2d80bb68ef89b9499e8fe837beedbd0, type: 3}
      propertyPath: m_AnchoredPosition.y
      value: 0
      objectReference: {fileID: 0}
    - target: {fileID: 6269077239809080749, guid: a2d80bb68ef89b9499e8fe837beedbd0, type: 3}
      propertyPath: m_TargetGraphic
      value: 
      objectReference: {fileID: 0}
    - target: {fileID: 6269077239809080749, guid: a2d80bb68ef89b9499e8fe837beedbd0, type: 3}
      propertyPath: m_OnClick.m_PersistentCalls.m_Calls.Array.data[0].m_Target
      value: 
      objectReference: {fileID: 0}
    - target: {fileID: 6269077239809080751, guid: a2d80bb68ef89b9499e8fe837beedbd0, type: 3}
      propertyPath: m_IsActive
      value: 0
      objectReference: {fileID: 0}
    - target: {fileID: 6269077240076662360, guid: a2d80bb68ef89b9499e8fe837beedbd0, type: 3}
      propertyPath: m_AnchorMax.x
      value: 0
      objectReference: {fileID: 0}
    - target: {fileID: 6269077240076662360, guid: a2d80bb68ef89b9499e8fe837beedbd0, type: 3}
      propertyPath: m_AnchorMax.y
      value: 0
      objectReference: {fileID: 0}
    - target: {fileID: 6269077240076662360, guid: a2d80bb68ef89b9499e8fe837beedbd0, type: 3}
      propertyPath: m_AnchorMin.x
      value: 0
      objectReference: {fileID: 0}
    - target: {fileID: 6269077240076662360, guid: a2d80bb68ef89b9499e8fe837beedbd0, type: 3}
      propertyPath: m_AnchorMin.y
      value: 0
      objectReference: {fileID: 0}
    - target: {fileID: 6269077240076662360, guid: a2d80bb68ef89b9499e8fe837beedbd0, type: 3}
      propertyPath: m_SizeDelta.x
      value: 0
      objectReference: {fileID: 0}
    - target: {fileID: 6269077240076662360, guid: a2d80bb68ef89b9499e8fe837beedbd0, type: 3}
      propertyPath: m_SizeDelta.y
      value: 0
      objectReference: {fileID: 0}
    - target: {fileID: 6269077240076662360, guid: a2d80bb68ef89b9499e8fe837beedbd0, type: 3}
      propertyPath: m_AnchoredPosition.x
      value: 0
      objectReference: {fileID: 0}
    - target: {fileID: 6269077240076662360, guid: a2d80bb68ef89b9499e8fe837beedbd0, type: 3}
      propertyPath: m_AnchoredPosition.y
      value: 0
      objectReference: {fileID: 0}
    - target: {fileID: 6269077240076662361, guid: a2d80bb68ef89b9499e8fe837beedbd0, type: 3}
      propertyPath: m_TargetGraphic
      value: 
      objectReference: {fileID: 0}
    - target: {fileID: 6269077240076662361, guid: a2d80bb68ef89b9499e8fe837beedbd0, type: 3}
      propertyPath: m_OnClick.m_PersistentCalls.m_Calls.Array.data[0].m_Target
      value: 
      objectReference: {fileID: 0}
    - target: {fileID: 6269077240345936226, guid: a2d80bb68ef89b9499e8fe837beedbd0, type: 3}
      propertyPath: m_OnClick.m_PersistentCalls.m_Calls.Array.size
      value: 0
      objectReference: {fileID: 0}
    - target: {fileID: 6269077240345936226, guid: a2d80bb68ef89b9499e8fe837beedbd0, type: 3}
      propertyPath: m_OnClick.m_PersistentCalls.m_Calls.Array.data[0].m_Mode
      value: 1
      objectReference: {fileID: 0}
    - target: {fileID: 6269077240345936226, guid: a2d80bb68ef89b9499e8fe837beedbd0, type: 3}
      propertyPath: m_OnClick.m_PersistentCalls.m_Calls.Array.data[0].m_Target
      value: 
      objectReference: {fileID: 0}
    - target: {fileID: 6269077240345936226, guid: a2d80bb68ef89b9499e8fe837beedbd0, type: 3}
      propertyPath: m_OnClick.m_PersistentCalls.m_Calls.Array.data[0].m_CallState
      value: 2
      objectReference: {fileID: 0}
    - target: {fileID: 6269077240345936226, guid: a2d80bb68ef89b9499e8fe837beedbd0, type: 3}
      propertyPath: m_OnClick.m_PersistentCalls.m_Calls.Array.data[0].m_MethodName
      value: 
      objectReference: {fileID: 0}
    - target: {fileID: 6269077240345936226, guid: a2d80bb68ef89b9499e8fe837beedbd0, type: 3}
      propertyPath: m_OnClick.m_PersistentCalls.m_Calls.Array.data[0].m_Arguments.m_ObjectArgumentAssemblyTypeName
      value: 
      objectReference: {fileID: 0}
    - target: {fileID: 6361399287093815184, guid: a2d80bb68ef89b9499e8fe837beedbd0, type: 3}
      propertyPath: m_IsActive
      value: 1
      objectReference: {fileID: 0}
    - target: {fileID: 6596262866058717845, guid: a2d80bb68ef89b9499e8fe837beedbd0, type: 3}
      propertyPath: m_AnchorMax.y
      value: 0
      objectReference: {fileID: 0}
    - target: {fileID: 6596262866058717845, guid: a2d80bb68ef89b9499e8fe837beedbd0, type: 3}
      propertyPath: m_AnchorMin.y
      value: 0
      objectReference: {fileID: 0}
    - target: {fileID: 6596262866058717845, guid: a2d80bb68ef89b9499e8fe837beedbd0, type: 3}
      propertyPath: m_SizeDelta.x
      value: 0
      objectReference: {fileID: 0}
    - target: {fileID: 6596262866058717845, guid: a2d80bb68ef89b9499e8fe837beedbd0, type: 3}
      propertyPath: m_SizeDelta.y
      value: 0
      objectReference: {fileID: 0}
    - target: {fileID: 6596262866058717845, guid: a2d80bb68ef89b9499e8fe837beedbd0, type: 3}
      propertyPath: m_AnchoredPosition.x
      value: 0
      objectReference: {fileID: 0}
    - target: {fileID: 6596262866058717845, guid: a2d80bb68ef89b9499e8fe837beedbd0, type: 3}
      propertyPath: m_AnchoredPosition.y
      value: 0
      objectReference: {fileID: 0}
    - target: {fileID: 6629784053836785470, guid: a2d80bb68ef89b9499e8fe837beedbd0, type: 3}
      propertyPath: m_OnClick.m_PersistentCalls.m_Calls.Array.data[0].m_Target
      value: 
      objectReference: {fileID: 0}
    - target: {fileID: 6629784053836785470, guid: a2d80bb68ef89b9499e8fe837beedbd0, type: 3}
      propertyPath: m_OnClick.m_PersistentCalls.m_Calls.Array.data[0].m_MethodName
      value: VerInfoEstanque
      objectReference: {fileID: 0}
    - target: {fileID: 7477742380515105717, guid: a2d80bb68ef89b9499e8fe837beedbd0, type: 3}
      propertyPath: m_AnchorMax.y
      value: 0
      objectReference: {fileID: 0}
    - target: {fileID: 7477742380515105717, guid: a2d80bb68ef89b9499e8fe837beedbd0, type: 3}
      propertyPath: m_AnchorMin.y
      value: 0
      objectReference: {fileID: 0}
    - target: {fileID: 7477742380515105717, guid: a2d80bb68ef89b9499e8fe837beedbd0, type: 3}
      propertyPath: m_SizeDelta.x
      value: 0
      objectReference: {fileID: 0}
    - target: {fileID: 7477742380515105717, guid: a2d80bb68ef89b9499e8fe837beedbd0, type: 3}
      propertyPath: m_SizeDelta.y
      value: 0
      objectReference: {fileID: 0}
    - target: {fileID: 7477742380515105717, guid: a2d80bb68ef89b9499e8fe837beedbd0, type: 3}
      propertyPath: m_AnchoredPosition.x
      value: 0
      objectReference: {fileID: 0}
    - target: {fileID: 7477742380515105717, guid: a2d80bb68ef89b9499e8fe837beedbd0, type: 3}
      propertyPath: m_AnchoredPosition.y
      value: 0
      objectReference: {fileID: 0}
    - target: {fileID: 7949899538768321491, guid: a2d80bb68ef89b9499e8fe837beedbd0, type: 3}
      propertyPath: m_AnchoredPosition.y
      value: 140
      objectReference: {fileID: 0}
    - target: {fileID: 8257404772073018880, guid: a2d80bb68ef89b9499e8fe837beedbd0, type: 3}
      propertyPath: m_OnClick.m_PersistentCalls.m_Calls.Array.data[0].m_Target
      value: 
      objectReference: {fileID: 0}
    - target: {fileID: 8257404772073018880, guid: a2d80bb68ef89b9499e8fe837beedbd0, type: 3}
      propertyPath: m_OnClick.m_PersistentCalls.m_Calls.Array.data[0].m_MethodName
      value: VerCambioTiempo
      objectReference: {fileID: 0}
    - target: {fileID: 8516301503454033778, guid: a2d80bb68ef89b9499e8fe837beedbd0, type: 3}
      propertyPath: m_AnchorMax.y
      value: 0
      objectReference: {fileID: 0}
    - target: {fileID: 8516301503454033778, guid: a2d80bb68ef89b9499e8fe837beedbd0, type: 3}
      propertyPath: m_AnchorMin.y
      value: 0
      objectReference: {fileID: 0}
    - target: {fileID: 8516301503454033778, guid: a2d80bb68ef89b9499e8fe837beedbd0, type: 3}
      propertyPath: m_SizeDelta.x
      value: 0
      objectReference: {fileID: 0}
    - target: {fileID: 8516301503454033778, guid: a2d80bb68ef89b9499e8fe837beedbd0, type: 3}
      propertyPath: m_SizeDelta.y
      value: 0
      objectReference: {fileID: 0}
    - target: {fileID: 8516301503454033778, guid: a2d80bb68ef89b9499e8fe837beedbd0, type: 3}
      propertyPath: m_AnchoredPosition.x
      value: 0
      objectReference: {fileID: 0}
    - target: {fileID: 8516301503454033778, guid: a2d80bb68ef89b9499e8fe837beedbd0, type: 3}
      propertyPath: m_AnchoredPosition.y
      value: 0
      objectReference: {fileID: 0}
    m_RemovedComponents: []
  m_SourcePrefab: {fileID: 100100000, guid: a2d80bb68ef89b9499e8fe837beedbd0, type: 3}
